Fri Nov 20, 2015 23:48

[SERVER PARAMS]
Array
(
    [REQUEST_URI] => /callback/thankyou?sd=sdfd
    [REQUEST_METHOD] => GET
    [REMOTE_USER] => 
    [REMOTE_PORT] => 8126
    [REMOTE_HOST] => 127.0.0.1
    [REMOTE_ADDR] => 127.0.0.1
    [HTTPS_SERVER_SUBJECT] => 
    [HTTPS_SERVER_ISSUER] => 
    [HTTPS_SECRETKEYSIZE] => 
    [HTTPS_KEYSIZE] => 
    [HTTPS] => off
    [AUTH_USER] => 
    [AUTH_PASSWORD] => 
    [AUTH_TYPE] => 
    [HTTP_X_ORIGINAL_URL] => /callback/thankyou?sd=sdfd
    [HTTP_USER_AGENT] => Mozilla/5.0 (Windows NT 10.0; WOW64; rv:42.0) Gecko/20100101 Firefox/42.0
    [HTTP_HOST] => 127.0.0.1:81
    [HTTP_ACCEPT_LANGUAGE] => en-US,en;q=0.5
    [HTTP_ACCEPT_ENCODING] => gzip, deflate
    [HTTP_ACCEPT] => text/html,application/xhtml+xml,application/xml;q=0.9,*/*;q=0.8
    [HTTP_CONTENT_LENGTH] => 0
    [HTTP_CONNECTION] => keep-alive
    [HTTP_CACHE_CONTROL] => max-age=0
    [REQUEST_TIME_FLOAT] => 1448059738.6568
    [REQUEST_TIME] => 1448059738
)

[GET PARAMS]
Array
(
    [q] => callback/thankyou
    [sd] => sdfd
)

[POST PARAMS]
Array
(
)

--------------------------------------------------

Fri Nov 20, 2015 23:49

[SERVER PARAMS]
Array
(
    [REQUEST_URI] => /callback/thankyou?sd=sdfd
    [REQUEST_METHOD] => GET
    [REMOTE_USER] => 
    [REMOTE_PORT] => 8126
    [REMOTE_HOST] => 127.0.0.1
    [REMOTE_ADDR] => 127.0.0.1
    [HTTPS_SERVER_SUBJECT] => 
    [HTTPS_SERVER_ISSUER] => 
    [HTTPS_SECRETKEYSIZE] => 
    [HTTPS_KEYSIZE] => 
    [HTTPS] => off
    [AUTH_USER] => 
    [AUTH_PASSWORD] => 
    [AUTH_TYPE] => 
    [HTTP_X_ORIGINAL_URL] => /callback/thankyou?sd=sdfd
    [HTTP_USER_AGENT] => Mozilla/5.0 (Windows NT 10.0; WOW64; rv:42.0) Gecko/20100101 Firefox/42.0
    [HTTP_HOST] => 127.0.0.1:81
    [HTTP_ACCEPT_LANGUAGE] => en-US,en;q=0.5
    [HTTP_ACCEPT_ENCODING] => gzip, deflate
    [HTTP_ACCEPT] => text/html,application/xhtml+xml,application/xml;q=0.9,*/*;q=0.8
    [HTTP_CONTENT_LENGTH] => 0
    [HTTP_CONNECTION] => keep-alive
    [HTTP_CACHE_CONTROL] => max-age=0
    [REQUEST_TIME_FLOAT] => 1448059747.6087
    [REQUEST_TIME] => 1448059747
)

[GET PARAMS]
Array
(
    [q] => callback/thankyou
    [sd] => sdfd
)

[POST PARAMS]
Array
(
)

--------------------------------------------------

Fri Nov 20, 2015 23:49

[SERVER PARAMS]
Array
(
    [REQUEST_URI] => /callback/thankyou?sd=sdfd
    [REQUEST_METHOD] => GET
    [REMOTE_USER] => 
    [REMOTE_PORT] => 8126
    [REMOTE_HOST] => 127.0.0.1
    [REMOTE_ADDR] => 127.0.0.1
    [HTTPS_SERVER_SUBJECT] => 
    [HTTPS_SERVER_ISSUER] => 
    [HTTPS_SECRETKEYSIZE] => 
    [HTTPS_KEYSIZE] => 
    [HTTPS] => off
    [AUTH_USER] => 
    [AUTH_PASSWORD] => 
    [AUTH_TYPE] => 
    [HTTP_X_ORIGINAL_URL] => /callback/thankyou?sd=sdfd
    [HTTP_USER_AGENT] => Mozilla/5.0 (Windows NT 10.0; WOW64; rv:42.0) Gecko/20100101 Firefox/42.0
    [HTTP_HOST] => 127.0.0.1:81
    [HTTP_ACCEPT_LANGUAGE] => en-US,en;q=0.5
    [HTTP_ACCEPT_ENCODING] => gzip, deflate
    [HTTP_ACCEPT] => text/html,application/xhtml+xml,application/xml;q=0.9,*/*;q=0.8
    [HTTP_CONTENT_LENGTH] => 0
    [HTTP_CONNECTION] => keep-alive
    [HTTP_CACHE_CONTROL] => max-age=0
    [REQUEST_TIME_FLOAT] => 1448059752.905
    [REQUEST_TIME] => 1448059752
)

[GET PARAMS]
Array
(
    [q] => callback/thankyou
    [sd] => sdfd
)

[POST PARAMS]
Array
(
)

--------------------------------------------------

